lab5/simulation/qsim/Lab5.msim.vcd
$comment
	File created using the following command:
		vcd file Lab5.msim.vcd -direction
$end
$date
	Wed Mar 30 15:25:45 2022
$end
$version
	ModelSim Version 10.1d
$end
$timescale
	1ps
$end
$scope module secundomer_vlg_vec_tst $end
$var reg 1 ! CLOCK_50 $end
$var reg 2 " KEY [1:0] $end
$var wire 1 # HEX0 [6] $end
$var wire 1 $ HEX0 [5] $end
$var wire 1 % HEX0 [4] $end
$var wire 1 & HEX0 [3] $end
$var wire 1 ' HEX0 [2] $end
$var wire 1 ( HEX0 [1] $end
$var wire 1 ) HEX0 [0] $end
$var wire 1 * HEX1 [6] $end
$var wire 1 + HEX1 [5] $end
$var wire 1 , HEX1 [4] $end
$var wire 1 - HEX1 [3] $end
$var wire 1 . HEX1 [2] $end
$var wire 1 / HEX1 [1] $end
$var wire 1 0 HEX1 [0] $end
$var wire 1 1 HEX2 [6] $end
$var wire 1 2 HEX2 [5] $end
$var wire 1 3 HEX2 [4] $end
$var wire 1 4 HEX2 [3] $end
$var wire 1 5 HEX2 [2] $end
$var wire 1 6 HEX2 [1] $end
$var wire 1 7 HEX2 [0] $end
$var wire 1 8 HEX3 [6] $end
$var wire 1 9 HEX3 [5] $end
$var wire 1 : HEX3 [4] $end
$var wire 1 ; HEX3 [3] $end
$var wire 1 < HEX3 [2] $end
$var wire 1 = HEX3 [1] $end
$var wire 1 > HEX3 [0] $end
$var wire 1 ? pulse_counter [18] $end
$var wire 1 @ pulse_counter [17] $end
$var wire 1 A pulse_counter [16] $end
$var wire 1 B pulse_counter [15] $end
$var wire 1 C pulse_counter [14] $end
$var wire 1 D pulse_counter [13] $end
$var wire 1 E pulse_counter [12] $end
$var wire 1 F pulse_counter [11] $end
$var wire 1 G pulse_counter [10] $end
$var wire 1 H pulse_counter [9] $end
$var wire 1 I pulse_counter [8] $end
$var wire 1 J pulse_counter [7] $end
$var wire 1 K pulse_counter [6] $end
$var wire 1 L pulse_counter [5] $end
$var wire 1 M pulse_counter [4] $end
$var wire 1 N pulse_counter [3] $end
$var wire 1 O pulse_counter [2] $end
$var wire 1 P pulse_counter [1] $end
$var wire 1 Q pulse_counter [0] $end
$var wire 1 R pulse_counter_10s [3] $end
$var wire 1 S pulse_counter_10s [2] $end
$var wire 1 T pulse_counter_10s [1] $end
$var wire 1 U pulse_counter_10s [0] $end
$var wire 1 V pulse_counter_100s [3] $end
$var wire 1 W pulse_counter_100s [2] $end
$var wire 1 X pulse_counter_100s [1] $end
$var wire 1 Y pulse_counter_100s [0] $end
$var wire 1 Z pulse_counter_ms [3] $end
$var wire 1 [ pulse_counter_ms [2] $end
$var wire 1 \ pulse_counter_ms [1] $end
$var wire 1 ] pulse_counter_ms [0] $end
$var wire 1 ^ pulse_counter_s [3] $end
$var wire 1 _ pulse_counter_s [2] $end
$var wire 1 ` pulse_counter_s [1] $end
$var wire 1 a pulse_counter_s [0] $end
$var wire 1 b sampler $end
$scope module i1 $end
$var wire 1 c gnd $end
$var wire 1 d vcc $end
$var wire 1 e unknown $end
$var tri1 1 f devclrn $end
$var tri1 1 g devpor $end
$var tri1 1 h devoe $end
$var wire 1 i Add0~0_combout $end
$var wire 1 j Add0~2_combout $end
$var wire 1 k Add0~6_combout $end
$var wire 1 l Add0~28_combout $end
$var wire 1 m Equal0~6_combout $end
$var wire 1 n pulse_counter_ms[2]~1_combout $end
$var wire 1 o Equal2~0_combout $end
$var wire 1 p pulse_counter_10s[2]~1_combout $end
$var wire 1 q ten_seconds_passed~0_combout $end
$var wire 1 r pulse_counter_100s[2]~3_combout $end
$var wire 1 s CLOCK_50~combout $end
$var wire 1 t CLOCK_50~clkctrl_outclk $end
$var wire 1 u device_running~0_combout $end
$var wire 1 v device_running~regout $end
$var wire 1 w pulse_counter[1]~2_combout $end
$var wire 1 x pulse_counter[1]~3_combout $end
$var wire 1 y KEY[1]~clkctrl_outclk $end
$var wire 1 z pulse_counter[1]~reg0_regout $end
$var wire 1 { Equal0~8_combout $end
$var wire 1 | pulse_counter[14]~26_combout $end
$var wire 1 } pulse_counter[14]~27_combout $end
$var wire 1 ~ pulse_counter[14]~reg0_regout $end
$var wire 1 !! pulse_counter[11]~21_combout $end
$var wire 1 "! pulse_counter[3]~6_combout $end
$var wire 1 #! pulse_counter[3]~7_combout $end
$var wire 1 $! pulse_counter[3]~reg0_regout $end
$var wire 1 %! Add0~1 $end
$var wire 1 &! Add0~3 $end
$var wire 1 '! Add0~5 $end
$var wire 1 (! Add0~7 $end
$var wire 1 )! Add0~8_combout $end
$var wire 1 *! pulse_counter[4]~8_combout $end
$var wire 1 +! pulse_counter[4]~9_combout $end
$var wire 1 ,! pulse_counter[4]~reg0_regout $end
$var wire 1 -! Add0~9 $end
$var wire 1 .! Add0~10_combout $end
$var wire 1 /! pulse_counter[5]~10_combout $end
$var wire 1 0! pulse_counter[5]~11_combout $end
$var wire 1 1! pulse_counter[5]~reg0_regout $end
$var wire 1 2! Add0~11 $end
$var wire 1 3! Add0~13 $end
$var wire 1 4! Add0~15 $end
$var wire 1 5! Add0~16_combout $end
$var wire 1 6! pulse_counter[8]~16_combout $end
$var wire 1 7! pulse_counter[8]~reg0_regout $end
$var wire 1 8! Add0~17 $end
$var wire 1 9! Add0~19 $end
$var wire 1 :! Add0~20_combout $end
$var wire 1 ;! pulse_counter[10]~19_combout $end
$var wire 1 <! pulse_counter[10]~20_combout $end
$var wire 1 =! pulse_counter[10]~reg0_regout $end
$var wire 1 >! Add0~21 $end
$var wire 1 ?! Add0~22_combout $end
$var wire 1 @! pulse_counter[11]~22_combout $end
$var wire 1 A! pulse_counter[11]~reg0_regout $end
$var wire 1 B! Add0~23 $end
$var wire 1 C! Add0~24_combout $end
$var wire 1 D! pulse_counter[12]~23_combout $end
$var wire 1 E! pulse_counter[12]~24_combout $end
$var wire 1 F! pulse_counter[12]~reg0_regout $end
$var wire 1 G! Add0~25 $end
$var wire 1 H! Add0~27 $end
$var wire 1 I! Add0~29 $end
$var wire 1 J! Add0~31 $end
$var wire 1 K! Add0~32_combout $end
$var wire 1 L! pulse_counter[16]~29_combout $end
$var wire 1 M! pulse_counter[16]~reg0_regout $end
$var wire 1 N! Add0~30_combout $end
$var wire 1 O! pulse_counter[15]~28_combout $end
$var wire 1 P! pulse_counter[15]~reg0_regout $end
$var wire 1 Q! Add0~33 $end
$var wire 1 R! Add0~34_combout $end
$var wire 1 S! pulse_counter[17]~30_combout $end
$var wire 1 T! pulse_counter[17]~reg0_regout $end
$var wire 1 U! Equal0~3_combout $end
$var wire 1 V! Add0~26_combout $end
$var wire 1 W! pulse_counter[13]~25_combout $end
$var wire 1 X! pulse_counter[13]~reg0_regout $end
$var wire 1 Y! Equal0~4_combout $end
$var wire 1 Z! Add0~18_combout $end
$var wire 1 [! pulse_counter[9]~17_combout $end
$var wire 1 \! pulse_counter[9]~18_combout $end
$var wire 1 ]! pulse_counter[9]~reg0_regout $end
$var wire 1 ^! pulse_counter[7]~14_combout $end
$var wire 1 _! Add0~14_combout $end
$var wire 1 `! pulse_counter[7]~15_combout $end
$var wire 1 a! pulse_counter[7]~reg0_regout $end
$var wire 1 b! Equal0~5_combout $end
$var wire 1 c! Equal0~7_combout $end
$var wire 1 d! Add0~4_combout $end
$var wire 1 e! pulse_counter[2]~4_combout $end
$var wire 1 f! pulse_counter[2]~5_combout $end
$var wire 1 g! pulse_counter[2]~reg0_regout $end
$var wire 1 h! Equal0~2_combout $end
$var wire 1 i! pulse_counter[0]~0_combout $end
$var wire 1 j! pulse_counter[0]~1_combout $end
$var wire 1 k! pulse_counter[0]~reg0_regout $end
$var wire 1 l! pulse_counter[6]~12_combout $end
$var wire 1 m! Add0~12_combout $end
$var wire 1 n! pulse_counter[6]~13_combout $end
$var wire 1 o! pulse_counter[6]~reg0_regout $end
$var wire 1 p! Add0~35 $end
$var wire 1 q! Add0~36_combout $end
$var wire 1 r! pulse_counter[18]~31_combout $end
$var wire 1 s! pulse_counter[18]~reg0_regout $end
$var wire 1 t! pulse_counter_ms[0]~4_combout $end
$var wire 1 u! pulse_counter_ms[0]~reg0_regout $end
$var wire 1 v! pulse_counter_ms[2]~2_combout $end
$var wire 1 w! pulse_counter_ms[2]~reg0_regout $end
$var wire 1 x! pulse_counter_ms~0_combout $end
$var wire 1 y! pulse_counter_ms[1]~reg0_regout $end
$var wire 1 z! pulse_counter_ms~3_combout $end
$var wire 1 {! pulse_counter_ms[3]~reg0_regout $end
$var wire 1 |! pulse_counter_s[0]~4_combout $end
$var wire 1 }! Equal1~0_combout $end
$var wire 1 ~! decimals_of_second_passed~combout $end
$var wire 1 !" pulse_counter_s[0]~reg0_regout $end
$var wire 1 "" pulse_counter_s~3_combout $end
$var wire 1 #" pulse_counter_s[3]~reg0_regout $end
$var wire 1 $" pulse_counter_s~0_combout $end
$var wire 1 %" pulse_counter_s[1]~reg0_regout $end
$var wire 1 &" pulse_counter_s[2]~1_combout $end
$var wire 1 '" pulse_counter_s[2]~2_combout $end
$var wire 1 (" pulse_counter_s[2]~reg0_regout $end
$var wire 1 )" pulse_counter_10s[0]~4_combout $end
$var wire 1 *" second_passed~combout $end
$var wire 1 +" pulse_counter_10s[0]~reg0_regout $end
$var wire 1 ," pulse_counter_10s[2]~2_combout $end
$var wire 1 -" pulse_counter_10s[2]~reg0_regout $end
$var wire 1 ." pulse_counter_10s~0_combout $end
$var wire 1 /" pulse_counter_10s[1]~reg0_regout $end
$var wire 1 0" pulse_counter_10s~3_combout $end
$var wire 1 1" pulse_counter_10s[3]~reg0_regout $end
$var wire 1 2" pulse_counter_100s[0]~7_combout $end
$var wire 1 3" Equal3~0_combout $end
$var wire 1 4" ten_seconds_passed~combout $end
$var wire 1 5" pulse_counter_100s[0]~reg0_regout $end
$var wire 1 6" pulse_counter_100s[2]~6_combout $end
$var wire 1 7" pulse_counter_100s[2]~4_combout $end
$var wire 1 8" pulse_counter_100s[2]~reg0_regout $end
$var wire 1 9" pulse_counter_100s~2_combout $end
$var wire 1 :" pulse_counter_100s[1]~reg0_regout $end
$var wire 1 ;" pulse_counter_100s~5_combout $end
$var wire 1 <" pulse_counter_100s[3]~reg0_regout $end
$var wire 1 =" WideOr6~0_combout $end
$var wire 1 >" WideOr6~1_combout $end
$var wire 1 ?" WideOr5~0_combout $end
$var wire 1 @" WideOr5~1_combout $end
$var wire 1 A" WideOr4~0_combout $end
$var wire 1 B" WideOr4~1_combout $end
$var wire 1 C" WideOr3~0_combout $end
$var wire 1 D" WideOr3~1_combout $end
$var wire 1 E" WideOr2~0_combout $end
$var wire 1 F" WideOr2~1_combout $end
$var wire 1 G" WideOr1~0_combout $end
$var wire 1 H" WideOr1~1_combout $end
$var wire 1 I" WideOr0~0_combout $end
$var wire 1 J" WideOr0~1_combout $end
$var wire 1 K" WideOr13~0_combout $end
$var wire 1 L" WideOr13~1_combout $end
$var wire 1 M" WideOr12~0_combout $end
$var wire 1 N" WideOr12~1_combout $end
$var wire 1 O" WideOr11~0_combout $end
$var wire 1 P" WideOr11~1_combout $end
$var wire 1 Q" WideOr10~0_combout $end
$var wire 1 R" WideOr10~1_combout $end
$var wire 1 S" WideOr9~0_combout $end
$var wire 1 T" WideOr9~1_combout $end
$var wire 1 U" WideOr8~0_combout $end
$var wire 1 V" WideOr8~1_combout $end
$var wire 1 W" WideOr7~0_combout $end
$var wire 1 X" WideOr7~1_combout $end
$var wire 1 Y" WideOr20~0_combout $end
$var wire 1 Z" WideOr20~1_combout $end
$var wire 1 [" WideOr19~0_combout $end
$var wire 1 \" WideOr19~1_combout $end
$var wire 1 ]" WideOr18~0_combout $end
$var wire 1 ^" WideOr18~1_combout $end
$var wire 1 _" WideOr17~0_combout $end
$var wire 1 `" WideOr17~1_combout $end
$var wire 1 a" WideOr16~0_combout $end
$var wire 1 b" WideOr16~1_combout $end
$var wire 1 c" WideOr15~0_combout $end
$var wire 1 d" WideOr15~1_combout $end
$var wire 1 e" WideOr14~0_combout $end
$var wire 1 f" WideOr14~1_combout $end
$var wire 1 g" WideOr27~0_combout $end
$var wire 1 h" WideOr27~1_combout $end
$var wire 1 i" WideOr26~0_combout $end
$var wire 1 j" WideOr26~1_combout $end
$var wire 1 k" WideOr25~0_combout $end
$var wire 1 l" WideOr25~1_combout $end
$var wire 1 m" WideOr24~0_combout $end
$var wire 1 n" WideOr24~1_combout $end
$var wire 1 o" WideOr23~0_combout $end
$var wire 1 p" WideOr23~1_combout $end
$var wire 1 q" WideOr22~0_combout $end
$var wire 1 r" WideOr22~1_combout $end
$var wire 1 s" WideOr21~0_combout $end
$var wire 1 t" WideOr21~1_combout $end
$var wire 1 u" KEY~combout [1] $end
$var wire 1 v" KEY~combout [0] $end
$upscope $end
$upscope $end
$enddefinitions $end
#0
$dumpvars
0!
b11 "
0)
0(
0'
0&
0%
0$
1#
00
0/
0.
0-
0,
0+
1*
07
06
05
04
03
02
11
0>
0=
0<
0;
0:
09
18
0Q
0P
0O
0N
0M
0L
0K
0J
0I
0H
0G
0F
0E
0D
0C
0B
0A
0@
0?
0U
0T
0S
0R
0Y
0X
0W
0V
0]
0\
0[
0Z
0a
0`
0_
0^
xb
0c
1d
xe
1f
1g
1h
1i
1j
1k
1l
0m
1n
0o
1p
0q
1r
0s
0t
1u
0v
0w
0x
1y
0z
0{
0|
0}
0~
0!!
0"!
0#!
0$!
0%!
1&!
0'!
1(!
0)!
0*!
0+!
0,!
0-!
0.!
0/!
00!
01!
12!
03!
14!
15!
06!
07!
08!
19!
0:!
0;!
0<!
0=!
0>!
0?!
0@!
0A!
1B!
0C!
0D!
0E!
0F!
0G!
1H!
0I!
1J!
0K!
0L!
0M!
1N!
0O!
0P!
0Q!
0R!
0S!
0T!
0U!
0V!
0W!
0X!
0Y!
1Z!
0[!
0\!
0]!
0^!
0_!
0`!
0a!
0b!
0c!
1d!
0e!
0f!
0g!
0h!
0i!
0j!
0k!
0l!
1m!
0n!
0o!
1p!
0q!
0r!
0s!
1t!
0u!
0v!
0w!
0x!
0y!
0z!
0{!
1|!
0}!
0~!
0!"
0""
0#"
0$"
0%"
1&"
0'"
0("
1)"
0*"
0+"
0,"
0-"
0."
0/"
00"
01"
12"
03"
04"
05"
16"
07"
08"
09"
0:"
0;"
0<"
0="
0>"
0?"
0@"
0A"
0B"
0C"
0D"
0E"
0F"
0G"
0H"
0I"
1J"
0K"
0L"
0M"
0N"
0O"
0P"
0Q"
0R"
0S"
0T"
0U"
0V"
0W"
1X"
0Y"
0Z"
0["
0\"
0]"
0^"
0_"
0`"
0a"
0b"
0c"
0d"
0e"
1f"
0g"
0h"
0i"
0j"
0k"
0l"
0m"
0n"
0o"
0p"
0q"
0r"
0s"
1t"
1v"
1u"
$end
#1000
1!
1s
1t
0b
#2000
0!
0s
0t
1b
#3000
1!
1s
1t
0b
#4000
0!
0s
0t
1b
#5000
1!
1s
1t
0b
#6000
0!
0s
0t
1b
#7000
1!
1s
1t
0b
#8000
0!
0s
0t
1b
#9000
1!
1s
1t
0b
#10000
0!
0s
0t
1b
#11000
1!
1s
1t
0b
#12000
0!
0s
0t
1b
#13000
1!
1s
1t
0b
#14000
0!
0s
0t
1b
#15000
1!
1s
1t
0b
#16000
0!
0s
0t
1b
#17000
1!
1s
1t
0b
#18000
0!
0s
0t
1b
#19000
1!
1s
1t
0b
#20000
0!
0s
0t
1b
#21000
1!
1s
1t
0b
#22000
0!
0s
0t
1b
#23000
1!
1s
1t
0b
#24000
0!
0s
0t
1b
#25000
1!
1s
1t
0b
#26000
0!
0s
0t
1b
#27000
1!
1s
1t
0b
#28000
0!
0s
0t
1b
#29000
1!
1s
1t
0b
#30000
0!
0s
0t
1b
#31000
1!
1s
1t
0b
#32000
0!
0s
0t
1b
#33000
1!
1s
1t
0b
#34000
0!
0s
0t
1b
#35000
1!
1s
1t
0b
#36000
0!
0s
0t
1b
#37000
1!
1s
1t
0b
#38000
0!
0s
0t
1b
#39000
1!
1s
1t
0b
#40000
0!
0s
0t
1b
#41000
1!
1s
1t
0b
#42000
0!
0s
0t
1b
#43000
1!
1s
1t
0b
#44000
0!
0s
0t
1b
#45000
1!
1s
1t
0b
#46000
0!
0s
0t
1b
#47000
1!
1s
1t
0b
#48000
0!
0s
0t
1b
#49000
1!
1s
1t
0b
#50000
0!
0s
0t
1b
#51000
1!
1s
1t
0b
#52000
0!
0s
0t
1b
#53000
1!
1s
1t
0b
#54000
0!
0s
0t
1b
#55000
1!
1s
1t
0b
#56000
0!
0s
0t
1b
#57000
1!
1s
1t
0b
#58000
0!
0s
0t
1b
#59000
1!
1s
1t
0b
#60000
0!
0s
0t
1b
#61000
1!
1s
1t
0b
#62000
0!
0s
0t
1b
#63000
1!
1s
1t
0b
#64000
0!
0s
0t
1b
#65000
1!
1s
1t
0b
#66000
0!
0s
0t
1b
#67000
1!
1s
1t
0b
#68000
0!
0s
0t
1b
#69000
1!
1s
1t
0b
#70000
0!
0s
0t
1b
#71000
1!
1s
1t
0b
#72000
0!
0s
0t
1b
#73000
1!
1s
1t
0b
#74000
0!
0s
0t
1b
#75000
1!
1s
1t
0b
#76000
0!
0s
0t
1b
#77000
1!
1s
1t
0b
#78000
0!
0s
0t
1b
#79000
1!
1s
1t
0b
#80000
0!
0s
0t
1b
#81000
1!
1s
1t
0b
#82000
0!
0s
0t
1b
#83000
1!
1s
1t
0b
#84000
0!
0s
0t
1b
#85000
1!
1s
1t
0b
#86000
0!
0s
0t
1b
#87000
1!
1s
1t
0b
#88000
0!
0s
0t
1b
#89000
1!
1s
1t
0b
#90000
0!
0s
0t
1b
#91000
1!
1s
1t
0b
#92000
0!
0s
0t
1b
#93000
1!
1s
1t
0b
#94000
0!
0s
0t
1b
#95000
1!
1s
1t
0b
#96000
0!
0s
0t
1b
#97000
1!
1s
1t
0b
#98000
0!
0s
0t
1b
#99000
1!
1s
1t
0b
#100000
0!
0s
0t
1b
#101000
1!
1s
1t
0b
#102000
0!
0s
0t
1b
#103000
1!
1s
1t
0b
#104000
0!
0s
0t
1b
#105000
1!
1s
1t
0b
#106000
0!
0s
0t
1b
#107000
1!
1s
1t
0b
#108000
0!
0s
0t
1b
#109000
1!
1s
1t
0b
#110000
0!
0s
0t
1b
#111000
1!
1s
1t
0b
#112000
0!
0s
0t
1b
#113000
1!
1s
1t
0b
#114000
0!
0s
0t
1b
#115000
1!
1s
1t
0b
#116000
0!
0s
0t
1b
#117000
1!
1s
1t
0b
#118000
0!
0s
0t
1b
#119000
1!
1s
1t
0b
#120000
0!
0s
0t
1b
#121000
1!
1s
1t
0b
#122000
0!
0s
0t
1b
#123000
1!
1s
1t
0b
#124000
0!
0s
0t
1b
#125000
1!
1s
1t
0b
#126000
0!
0s
0t
1b
#127000
1!
1s
1t
0b
#128000
0!
0s
0t
1b
#129000
1!
1s
1t
0b
#130000
0!
0s
0t
1b
#131000
1!
1s
1t
0b
#132000
0!
0s
0t
1b
#133000
1!
1s
1t
0b
#134000
0!
0s
0t
1b
#135000
1!
1s
1t
0b
#136000
0!
0s
0t
1b
#137000
1!
1s
1t
0b
#138000
0!
0s
0t
1b
#139000
1!
1s
1t
0b
#140000
0!
0s
0t
1b
#141000
1!
1s
1t
0b
#142000
0!
0s
0t
1b
#143000
1!
1s
1t
0b
#144000
0!
0s
0t
1b
#145000
1!
1s
1t
0b
#146000
0!
0s
0t
1b
#147000
1!
1s
1t
0b
#148000
0!
0s
0t
1b
#149000
1!
1s
1t
0b
#150000
0!
0s
0t
1b
#151000
1!
1s
1t
0b
#152000
0!
0s
0t
1b
#153000
1!
1s
1t
0b
#154000
0!
0s
0t
1b
#155000
1!
1s
1t
0b
#156000
0!
0s
0t
1b
#157000
1!
1s
1t
0b
#158000
0!
0s
0t
1b
#159000
1!
1s
1t
0b
#160000
0!
0s
0t
1b
#161000
1!
1s
1t
0b
#162000
0!
0s
0t
1b
#163000
1!
1s
1t
0b
#164000
0!
0s
0t
1b
#165000
1!
1s
1t
0b
#166000
0!
0s
0t
1b
#167000
1!
1s
1t
0b
#168000
0!
0s
0t
1b
#169000
1!
1s
1t
0b
#170000
0!
0s
0t
1b
#171000
1!
1s
1t
0b
#172000
0!
0s
0t
1b
#173000
1!
1s
1t
0b
#174000
0!
0s
0t
1b
#175000
1!
1s
1t
0b
#176000
0!
0s
0t
1b
#177000
1!
1s
1t
0b
#178000
0!
0s
0t
1b
#179000
1!
1s
1t
0b
#180000
0!
0s
0t
1b
#181000
1!
1s
1t
0b
#182000
0!
0s
0t
1b
#183000
1!
1s
1t
0b
#184000
0!
0s
0t
1b
#185000
1!
1s
1t
0b
#186000
0!
0s
0t
1b
#187000
1!
1s
1t
0b
#188000
0!
0s
0t
1b
#189000
1!
1s
1t
0b
#190000
0!
0s
0t
1b
#191000
1!
1s
1t
0b
#192000
0!
0s
0t
1b
#193000
1!
1s
1t
0b
#194000
0!
0s
0t
1b
#195000
1!
1s
1t
0b
#196000
0!
0s
0t
1b
#197000
1!
1s
1t
0b
#198000
0!
0s
0t
1b
#199000
1!
1s
1t
0b
#200000
0!
0s
0t
1b
#201000
1!
1s
1t
0b
#202000
0!
0s
0t
1b
#203000
1!
1s
1t
0b
#204000
0!
0s
0t
1b
#205000
1!
1s
1t
0b
#206000
0!
0s
0t
1b
#207000
1!
1s
1t
0b
#208000
0!
0s
0t
1b
#209000
1!
1s
1t
0b
#210000
0!
0s
0t
1b
#211000
1!
1s
1t
0b
#212000
0!
0s
0t
1b
#213000
1!
1s
1t
0b
#214000
0!
0s
0t
1b
#215000
1!
1s
1t
0b
#216000
0!
0s
0t
1b
#217000
1!
1s
1t
0b
#218000
0!
0s
0t
1b
#219000
1!
1s
1t
0b
#220000
0!
0s
0t
1b
#221000
1!
1s
1t
0b
#222000
0!
0s
0t
1b
#223000
1!
1s
1t
0b
#224000
0!
0s
0t
1b
#225000
1!
1s
1t
0b
#226000
0!
0s
0t
1b
#227000
1!
1s
1t
0b
#228000
0!
0s
0t
1b
#229000
1!
1s
1t
0b
#230000
0!
0s
0t
1b
#231000
1!
1s
1t
0b
#232000
0!
0s
0t
1b
#233000
1!
1s
1t
0b
#234000
0!
0s
0t
1b
#235000
1!
1s
1t
0b
#236000
0!
0s
0t
1b
#237000
1!
1s
1t
0b
#238000
0!
0s
0t
1b
#239000
1!
1s
1t
0b
#240000
0!
0s
0t
1b
#241000
1!
1s
1t
0b
#242000
0!
0s
0t
1b
#243000
1!
1s
1t
0b
#244000
0!
0s
0t
1b
#245000
1!
1s
1t
0b
#246000
0!
0s
0t
1b
#247000
1!
1s
1t
0b
#248000
0!
0s
0t
1b
#249000
1!
1s
1t
0b
#250000
0!
0s
0t
1b
#251000
1!
1s
1t
0b
#252000
0!
0s
0t
1b
#253000
1!
1s
1t
0b
#254000
0!
0s
0t
1b
#255000
1!
1s
1t
0b
#256000
0!
0s
0t
1b
#257000
1!
1s
1t
0b
#258000
0!
0s
0t
1b
#259000
1!
1s
1t
0b
#260000
0!
0s
0t
1b
#261000
1!
1s
1t
0b
#262000
0!
0s
0t
1b
#263000
1!
1s
1t
0b
#264000
0!
0s
0t
1b
#265000
1!
1s
1t
0b
#266000
0!
0s
0t
1b
#267000
1!
1s
1t
0b
#268000
0!
0s
0t
1b
#269000
1!
1s
1t
0b
#270000
0!
0s
0t
1b
#271000
1!
1s
1t
0b
#272000
0!
0s
0t
1b
#273000
1!
1s
1t
0b
#274000
0!
0s
0t
1b
#275000
1!
1s
1t
0b
#276000
0!
0s
0t
1b
#277000
1!
1s
1t
0b
#278000
0!
0s
0t
1b
#279000
1!
1s
1t
0b
#280000
0!
0s
0t
1b
#281000
1!
1s
1t
0b
#282000
0!
0s
0t
1b
#283000
1!
1s
1t
0b
#284000
0!
0s
0t
1b
#285000
1!
1s
1t
0b
#286000
0!
0s
0t
1b
#287000
1!
1s
1t
0b
#288000
0!
0s
0t
1b
#289000
1!
1s
1t
0b
#290000
0!
0s
0t
1b
#291000
1!
1s
1t
0b
#292000
0!
0s
0t
1b
#293000
1!
1s
1t
0b
#294000
0!
0s
0t
1b
#295000
1!
1s
1t
0b
#296000
0!
0s
0t
1b
#297000
1!
1s
1t
0b
#298000
0!
0s
0t
1b
#299000
1!
1s
1t
0b
#300000
0!
0s
0t
1b
#301000
1!
1s
1t
0b
#302000
0!
0s
0t
1b
#303000
1!
1s
1t
0b
#304000
0!
0s
0t
1b
#305000
1!
1s
1t
0b
#306000
0!
0s
0t
1b
#307000
1!
1s
1t
0b
#308000
0!
0s
0t
1b
#309000
1!
1s
1t
0b
#310000
0!
0s
0t
1b
#311000
1!
1s
1t
0b
#312000
0!
0s
0t
1b
#313000
1!
1s
1t
0b
#314000
0!
0s
0t
1b
#315000
1!
1s
1t
0b
#316000
0!
0s
0t
1b
#317000
1!
1s
1t
0b
#318000
0!
0s
0t
1b
#319000
1!
1s
1t
0b
#320000
b10 "
0!
0v"
0s
0t
1b
1v
1n!
1l!
1i!
1e!
1^!
1\!
1[!
1O!
1D!
1;!
16!
1/!
1#!
1"!
1!!
1}
1|
1w
0u
1j!
1f!
1x
#321000
1!
1s
1t
0b
1o!
1k!
1g!
1]!
1P!
17!
1$!
1~
1z
13!
0m!
1%!
0i
1'!
0d!
09!
0Z!
0J!
0N!
18!
05!
0(!
0k
1I!
0l
0&!
0j
1K
1Q
1O
1H
1B
1I
1N
1C
1P
1_!
0n!
1j
0i!
1k
0e!
1:!
0\!
1K!
0O!
1Z!
06!
1)!
0#!
1N!
0}
1d!
0w
1`!
1w
0j!
1#!
0f!
1<!
1L!
1\!
1*!
1O!
1e!
0x
1x
1+!
1f!
#322000
0!
0s
0t
1b
#323000
1!
1s
1t
0b
0o!
0k!
1a!
1M!
1=!
07!
1,!
0~
03!
1m!
1h!
0%!
1i
04!
0_!
1Q!
0K!
1>!
0:!
08!
15!
1-!
0)!
0I!
1l
0K
0Q
1J
1A
1G
0I
1M
0C
14!
1_!
1n!
0l!
0^!
0[!
0D!
0;!
0/!
0"!
0!!
0|
0j
1i!
18!
05!
0`!
1R!
0L!
1?!
0<!
0Z!
16!
1.!
0*!
0N!
1}
08!
15!
1`!
0\!
10!
1@!
0w
1j!
1Z!
06!
1S!
0+!
0O!
0Z!
16!
0x
1\!
0\!
#324000
0!
0s
0t
1b
#325000
1!
1s
1t
0b
1o!
1k!
0]!
1T!
0P!
0M!
1A!
0=!
17!
11!
0,!
1~
0z
13!
0m!
0h!
1%!
0i
19!
1Z!
0p!
0R!
1J!
1N!
0Q!
1K!
0B!
0?!
0>!
1:!
18!
05!
02!
0.!
0-!
1)!
1I!
0l
1&!
1j
1K
1Q
0H
1@
0B
0A
1F
0G
1I
1L
0M
1C
0P
04!
0_!
0n!
1l!
1^!
1[!
1D!
1;!
1/!
1"!
1!!
1|
0&!
0j
0i!
0:!
1\!
1q!
0S!
0K!
1O!
1p!
1R!
1L!
1C!
0@!
1B!
1?!
1<!
09!
0Z!
06!
1m!
00!
12!
1.!
1*!
0J!
0N!
0}
0d!
1w
15!
0`!
1n!
0\!
1E!
0<!
10!
1@!
1d!
0w
0j!
1r!
0L!
0q!
1S!
0C!
1:!
0m!
1+!
1K!
0O!
0e!
1x
16!
1e!
0x
0r!
0E!
1<!
0n!
1L!
0f!
1f!
#326000
0!
0s
0t
1b
#327000
1!
1s
1t
0b
0o!
0k!
0a!
1M!
1=!
1,!
0~
03!
1m!
0%!
1i
14!
1_!
1Q!
0K!
1>!
0:!
1-!
0)!
0I!
1l
0K
0Q
0J
1A
1G
1M
0C
0_!
1n!
1&!
1j
1i!
05!
1`!
0p!
0R!
0L!
0B!
0?!
0<!
02!
0.!
0*!
1J!
1N!
1}
0`!
0d!
1w
1j!
06!
1q!
0S!
1C!
0@!
13!
0m!
00!
0+!
0Q!
1K!
1O!
0e!
1x
1r!
1E!
1_!
0n!
1p!
1R!
1L!
0f!
1`!
0q!
1S!
0r!
#328000
0!
0s
0t
1b
#329000
1!
1s
1t
0b
1k!
0g!
1a!
1P!
1F!
0A!
0=!
07!
01!
0,!
1~
1z
1%!
0i
0'!
1d!
04!
0_!
0J!
0N!
1G!
0C!
1B!
1?!
0>!
1:!
08!
15!
12!
1.!
0-!
1)!
1I!
0l
0&!
0j
1Q
0O
1J
1B
1E
0F
0G
0I
0L
0M
1C
1P
1j
0i!
0k
1e!
18!
05!
0`!
1Q!
0K!
0O!
1V!
0E!
0G!
1C!
1@!
0?!
1<!
19!
1Z!
16!
03!
1m!
10!
0.!
1*!
1N!
0}
1'!
0d!
0w
1w
0j!
0#!
1f!
09!
0Z!
06!
0p!
0R!
0L!
1W!
0V!
1E!
0@!
0:!
1\!
14!
1_!
1n!
00!
1+!
1O!
1k
0e!
0x
1x
1:!
0\!
1q!
0S!
0W!
0<!
08!
15!
1`!
1#!
0f!
1<!
1r!
19!
1Z!
16!
0:!
1\!
0<!
#330000
0!
0s
0t
1b
#331000
1!
1s
1t
0b
1s!
1o!
0k!
1]!
0T!
0M!
17!
1,!
0~
0q!
13!
0m!
0%!
1i
09!
0Z!
1p!
1R!
0Q!
1K!
18!
05!
1-!
0)!
0I!
1l
1?
1K
0Q
1H
0@
0A
1I
1M
0C
0r!
04!
0_!
0n!
0j
1i!
1:!
0\!
1q!
1S!
0R!
1L!
1Z!
06!
1.!
0*!
0N!
1}
15!
0`!
0w
1j!
1<!
1r!
0S!
1\!
10!
0+!
0O!
16!
0x
#332000
0!
0s
0t
1b
