lab4-plis/simulation/qsim/lab4.msim.vcd
$comment
	File created using the following command:
		vcd file lab4.msim.vcd -direction
$end
$date
	Sat Apr 30 14:23:50 2022
$end
$version
	ModelSim Version 10.1d
$end
$timescale
	1ps
$end
$scope module shift_reg_4_vlg_vec_tst $end
$var reg 1 ! ISb $end
$var reg 1 " clk $end
$var reg 1 # dir $end
$var reg 1 $ en $end
$var reg 1 % rst $end
$var wire 1 & OSb $end
$var wire 1 ' shift_rg [3] $end
$var wire 1 ( shift_rg [2] $end
$var wire 1 ) shift_rg [1] $end
$var wire 1 * shift_rg [0] $end
$var wire 1 + sampler $end
$scope module i1 $end
$var wire 1 , gnd $end
$var wire 1 - vcc $end
$var wire 1 . unknown $end
$var tri1 1 / devclrn $end
$var tri1 1 0 devpor $end
$var tri1 1 1 devoe $end
$var wire 1 2 clk~combout $end
$var wire 1 3 clk~clkctrl_outclk $end
$var wire 1 4 en~combout $end
$var wire 1 5 ISb~combout $end
$var wire 1 6 rst~combout $end
$var wire 1 7 rst~clkctrl_outclk $end
$var wire 1 8 dir~combout $end
$var wire 1 9 shift_rg[0]~0_combout $end
$var wire 1 : shift_rg[0]~reg0_regout $end
$var wire 1 ; OSb~0_combout $end
$var wire 1 < OSb~reg0_regout $end
$var wire 1 = shift_rg[1]~reg0_regout $end
$var wire 1 > shift_rg[2]~reg0feeder_combout $end
$var wire 1 ? shift_rg[2]~reg0_regout $end
$var wire 1 @ shift_rg[3]~1_combout $end
$var wire 1 A shift_rg[3]~2_combout $end
$var wire 1 B shift_rg[3]~reg0_regout $end
$upscope $end
$upscope $end
$enddefinitions $end
#0
$dumpvars
0!
0"
0#
0$
0%
0&
0*
0)
0(
0'
x+
0,
1-
x.
1/
10
11
02
03
04
05
06
07
08
09
0:
0;
0<
0=
0>
0?
0@
0A
0B
$end
#1000000
1"
12
13
0+
#2000000
1$
0"
14
02
03
1+
#3000000
1"
12
13
0+
#4000000
1!
0$
0"
15
04
02
03
1+
#5000000
1"
12
13
0+
#6000000
1$
0"
14
02
03
1+
1@
1A
#7000000
1"
12
13
0+
1B
1'
#8000000
1#
0!
0$
0"
18
05
04
02
03
1+
0@
#9000000
1"
12
13
0+
#10000000
1$
0"
14
02
03
1+
0A
1;
19
#11000000
1"
12
13
0+
0B
1<
0;
0'
1&
#12000000
1!
0$
0"
15
04
02
03
1+
09
#13000000
1"
12
13
0+
0<
0&
#14000000
1$
0"
14
02
03
1+
19
#15000000
1"
12
13
0+
1:
1*
#16000000
0#
0!
0$
0"
08
05
04
02
03
1+
09
#17000000
1"
12
13
0+
#18000000
1$
0"
14
02
03
1+
1;
#19000000
1"
12
13
0+
1<
1&
#20000000
1!
0$
0"
15
04
02
03
1+
0;
#21000000
1"
12
13
0+
0<
0&
#22000000
1$
0"
14
02
03
1+
1@
1;
1A
#23000000
1"
12
13
0+
1B
1<
1'
1&
#24000000
1#
0!
0$
0"
18
05
04
02
03
1+
0@
0;
#25000000
1"
12
13
0+
0<
0&
#26000000
1$
0"
14
02
03
1+
0A
1;
19
#27000000
1"
12
13
0+
0B
1=
1<
0:
0;
1>
0'
1)
1&
0*
#28000000
1!
0$
0"
15
04
02
03
1+
09
#29000000
1"
12
13
0+
0<
0&
#30000000
1$
0"
14
02
03
1+
19
#31000000
1"
12
13
0+
1?
0=
1:
1@
0>
1(
0)
1*
1A
#32000000
0#
0!
0$
0"
08
05
04
02
03
1+
0@
09
0A
#33000000
1"
12
13
0+
#34000000
1$
0"
14
02
03
1+
1;
#35000000
1%
1"
16
12
13
17
0+
0?
0:
0;
0(
0*
#36000000
1!
0$
0%
0"
15
04
06
02
03
07
1+
#37000000
1"
12
13
0+
#38000000
1$
0"
14
02
03
1+
1@
1A
#39000000
1"
12
13
0+
1B
1'
#40000000
1#
0!
0$
0"
18
05
04
02
03
1+
0@
#41000000
1"
12
13
0+
#42000000
1$
0"
14
02
03
1+
0A
1;
19
#43000000
1"
12
13
0+
0B
1<
0;
0'
1&
#44000000
1!
0$
0"
15
04
02
03
1+
09
#45000000
1"
12
13
0+
0<
0&
#46000000
1$
0"
14
02
03
1+
19
#47000000
1"
12
13
0+
1:
1*
#48000000
0#
0!
0$
0"
08
05
04
02
03
1+
09
#49000000
1"
12
13
0+
